id,Title,Content,SKU,"Product Type",parent_id,tm_meta_wpml,tm_meta
29331,"Aamra Styla cover",,bfxs-0562,variable,0,"a:1:{s:10:""tmfbuilder"";a:44:{s:19:""section_header_size"";a:1:{i:0;s:1:""3"";}s:20:""section_header_title"";a:1:{i:0;s:0:"""";}s:29:""section_header_title_position"";a:1:{i:0;s:0:"""";}s:26:""section_header_title_color"";a:1:{i:0;s:0:"""";}s:23:""section_header_subtitle"";a:1:{i:0;s:0:"""";}s:32:""section_header_subtitle_position"";a:1:{i:0;s:0:"""";}s:29:""section_header_subtitle_color"";a:1:{i:0;s:0:"""";}s:20:""section_divider_type"";a:1:{i:0;s:4:""none"";}s:8:""sections"";a:1:{i:0;s:1:""1"";}s:15:""sections_slides"";a:1:{i:0;s:0:"""";}s:13:""sections_size"";a:1:{i:0;s:4:""w100"";}s:15:""sections_uniqid"";a:1:{i:0;s:23:""594cf459d6f931.64136456"";}s:14:""sections_style"";a:1:{i:0;s:0:"""";}s:18:""sections_placement"";a:1:{i:0;s:6:""before"";}s:13:""sections_type"";a:1:{i:0;s:0:"""";}s:14:""sections_class"";a:1:{i:0;s:0:"""";}s:15:""sections_clogic"";a:1:{i:0;s:41:""{""toggle"":""show"",""what"":""any"",""rules"":[]}"";}s:14:""sections_logic"";a:1:{i:0;s:0:"""";}s:22:""sections_internal_name"";a:1:{i:0;s:7:""Section"";}s:12:""element_type"";a:1:{i:0;s:10:""variations"";}s:8:""div_size"";a:1:{i:0;s:4:""w100"";}s:24:""variations_internal_name"";a:1:{i:0;s:10:""Variations"";}s:22:""variations_header_size"";a:1:{i:0;s:2:""10"";}s:23:""variations_header_title"";a:1:{i:0;s:0:"""";}s:32:""variations_header_title_position"";a:1:{i:0;s:0:"""";}s:29:""variations_header_title_color"";a:1:{i:0;s:0:"""";}s:26:""variations_header_subtitle"";a:1:{i:0;s:0:"""";}s:35:""variations_header_subtitle_position"";a:1:{i:0;s:0:"""";}s:32:""variations_header_subtitle_color"";a:1:{i:0;s:0:"""";}s:23:""variations_divider_type"";a:1:{i:0;s:4:""none"";}s:18:""variations_options"";a:1:{s:8:""pa_color"";a:12:{s:21:""variations_display_as"";s:5:""image"";s:16:""variations_label"";s:0:"""";s:28:""variations_show_reset_button"";s:0:"""";s:16:""variations_class"";s:0:"""";s:24:""variations_items_per_row"";s:1:""7"";s:21:""variations_item_width"";s:2:""70"";s:22:""variations_item_height"";s:2:""70"";s:32:""variations_changes_product_image"";s:0:"""";s:20:""variations_show_name"";s:4:""hide"";s:16:""variations_color"";a:5:{s:4:""blau"";s:0:"""";s:11:""braun-leder"";s:0:"""";s:4:""pink"";s:0:"""";s:3:""rot"";s:0:"""";s:13:""schwarz-leder"";s:0:"""";}s:16:""variations_image"";a:5:{s:4:""blau"";s:77:""http://p414239.webspaceconfig.de/wp-content/uploads/2017/06/blau_variante.jpg"";s:11:""braun-leder"";s:84:""http://p414239.webspaceconfig.de/wp-content/uploads/2017/06/braun-Leder_variante.jpg"";s:4:""pink"";s:77:""http://p414239.webspaceconfig.de/wp-content/uploads/2017/06/pink_variante.jpg"";s:3:""rot"";s:76:""http://p414239.webspaceconfig.de/wp-content/uploads/2017/06/rot_variante.jpg"";s:13:""schwarz-leder"";s:86:""http://p414239.webspaceconfig.de/wp-content/uploads/2017/06/schwarz-Leder_variante.jpg"";}s:17:""variations_imagep"";a:5:{s:4:""blau"";s:0:"""";s:11:""braun-leder"";s:0:"""";s:4:""pink"";s:0:"""";s:3:""rot"";s:0:"""";s:13:""schwarz-leder"";s:0:"""";}}}s:17:""variations_uniqid"";a:1:{i:0;s:23:""594cf459d6f948.75375867"";}s:17:""variations_clogic"";a:1:{i:0;s:77:""{""element"":""594cf459d6f948.75375867"",""toggle"":""show"",""what"":""all"",""rules"":[]}"";}s:16:""variations_logic"";a:1:{i:0;s:0:"""";}s:16:""variations_class"";a:1:{i:0;s:0:"""";}s:23:""variations_container_id"";a:1:{i:0;s:0:"""";}s:41:""variations_include_tax_for_fee_price_type"";a:1:{i:0;s:0:"""";}s:39:""variations_tax_class_for_fee_price_type"";a:1:{i:0;s:0:"""";}s:37:""variations_hide_element_label_in_cart"";a:1:{i:0;s:0:"""";}s:37:""variations_hide_element_value_in_cart"";a:1:{i:0;s:0:"""";}s:38:""variations_hide_element_label_in_order"";a:1:{i:0;s:0:"""";}s:38:""variations_hide_element_value_in_order"";a:1:{i:0;s:0:"""";}s:41:""variations_hide_element_label_in_floatbox"";a:1:{i:0;s:0:"""";}s:41:""variations_hide_element_value_in_floatbox"";a:1:{i:0;s:0:"""";}}}",
29332,"Variation #29332 of Aamra Styla cover",,51020562,variable,29331,,
29333,"Variation #29333 of Aamra Styla cover",,51040562,variable,29331,,
29334,"Variation #29334 of Aamra Styla cover",,51000562,variable,29331,,
29335,"Variation #29335 of Aamra Styla cover",,51030562,variable,29331,,
29336,"Variation #29336 of Aamra Styla cover",,51010562,variable,29331,,
